JFK,John F Kennedy International Airport,New York,USA,1948,2
LAX,Los Angeles International Airport,Los Angeles,USA,1928,4
SFO,San Francisco International Airport,San Francisco,USA,1926,3
SJC,San Jose International Airport,San Jose,USA,1894,3
SOF,Sofia Airport,Sofia,Bulgaria,1930,2
DFW,Dallas Fort Worth International Airport,Texas,USA,1982,3
MIA,Miami International Airport,Florida,USA,1983,3
ORD,Chicago OHare International Airport,Chicago,USA,1903,3
ATL,Atlanta HartsfieldJackson International Airport,Atlanta,USA,1960,3
BOS,Boston Logan International Airport,Massachusetts,USA,1976,3
SEA,Seattle Tacoma International Airport,Washington,USA,1927,3
DCA,Ronald Reagan Washington National Airport,District of Columbia,USA,1946,3
